Reflectivity: 0.98
216	12274
206	12441
196	12350
186	12010
156	11422
126	10627
96	9890
66	9260
36	8541
0	7380

Reflectivity: 0.97
216	11910
206	11904
196	11851
186	11336
156	10541
126	9647
96	8598
66	7885
36	7306
0	6045

Reflectivity: 0.96
216	11569
206	11564
196	11284
186	10899
156	9768
126	8694
96	7564
66	6804
36	6211
0	5142

Reflectivity: 0.95
216	11221
206	11202
196	10847
186	10419
156	9166
126	7938
96	6830
66	6053
36	5239
0	4362

Reflectivity: 0.94
216	10957
206	10885
196	10606
186	9900
156	8499
126	7384
96	6158
66	5334
36	4565
0	3759

Reflectivity: 0.93
216	10591
206	10559
196	10211
186	9511
156	7887
126	6870
96	5606
66	4754
36	3954
0	3280

Reflectivity: 0.92
216	10216
206	10262
196	9861
186	9238
156	7543
126	6332
96	5150
66	4301
36	3552
0	2942

Reflectivity: 0.91
216	10056
206	9947
196	9465
186	8835
156	7225
126	5805
96	4685
66	3826
36	3199
0	2568

Reflectivity: 0.9
216	9716
206	9690
196	8858
186	8492
156	7010
126	5464
96	4348
66	3514
36	2860
0	2278

